<?xml version="1.0" encoding="UTF-8" standalone="no"?>
<svg:svg
   xmlns:dc="http://purl.org/dc/elements/1.1/"
   xmlns:cc="http://creativecommons.org/ns#"
   xmlns:rdf="http://www.w3.org/1999/02/22-rdf-syntax-ns#"
   xmlns:svg="http://www.w3.org/2000/svg"
   xmlns:sodipodi="http://sodipodi.sourceforge.net/DTD/sodipodi-0.dtd"
   xmlns:inkscape="http://www.inkscape.org/namespaces/inkscape"
   width="706.75"
   height="679.03125"
   id="svg2"
   sodipodi:version="0.32"
   inkscape:version="1.0.2 (394de47547, 2021-03-26)"
   sodipodi:docname="sterntastatur.svg"
   inkscape:output_extension="org.inkscape.output.svg.inkscape"
   version="1.1">
  <svg:defs
     id="defs4">
    <inkscape:perspective
       sodipodi:type="inkscape:persp3d"
       inkscape:vp_x="0 : 152.85016 : 1"
       inkscape:vp_y="0 : 1000 : 0"
       inkscape:vp_z="744.09448 : 152.85016 : 1"
       inkscape:persp3d-origin="372.04724 : -22.543543 : 1"
       id="perspective10" />
    <inkscape:perspective
       id="perspective2447"
       inkscape:persp3d-origin="372.04724 : -22.543543 : 1"
       inkscape:vp_z="744.09448 : 152.85016 : 1"
       inkscape:vp_y="0 : 1000 : 0"
       inkscape:vp_x="0 : 152.85016 : 1"
       sodipodi:type="inkscape:persp3d" />
  </svg:defs>
  <sodipodi:namedview
     id="base"
     pagecolor="#ffffff"
     bordercolor="#666666"
     borderopacity="1.0"
     gridtolerance="10000"
     guidetolerance="10"
     objecttolerance="10"
     inkscape:pageopacity="0.0"
     inkscape:pageshadow="2"
     inkscape:zoom="0.98994949"
     inkscape:cx="402.13917"
     inkscape:cy="333.87207"
     inkscape:document-units="px"
     inkscape:current-layer="layer1"
     showgrid="false"
     showguides="true"
     inkscape:guide-bbox="true"
     inkscape:window-width="1848"
     inkscape:window-height="1016"
     inkscape:window-x="72"
     inkscape:window-y="27"
     inkscape:document-rotation="0"
     inkscape:pagecheckerboard="true"
     inkscape:window-maximized="1">
    <sodipodi:guide
       orientation="1,0"
       position="1524.084,474.84553"
       id="guide3559" />
  </sodipodi:namedview>
  <svg:metadata
     id="metadata7">
    <rdf:RDF>
      <cc:Work
         rdf:about="">
        <dc:format>image/svg+xml</dc:format>
        <dc:type
           rdf:resource="http://purl.org/dc/dcmitype/StillImage" />
        <dc:title></dc:title>
      </cc:Work>
    </rdf:RDF>
  </svg:metadata>
  <svg:g
     inkscape:label="Layer 1"
     inkscape:groupmode="layer"
     id="layer1"
     transform="translate(-11.630257,-173.89075)">
    <svg:path
       style="opacity:1;fill:#ff0000;fill-opacity:1;stroke:none;stroke-width:2;stroke-linecap:round;stroke-linejoin:round;stroke-miterlimit:4;stroke-dasharray:none;stroke-dashoffset:0;stroke-opacity:1"
       d="M 363.83244,666.94213 183.06775,802.047 225.5365,669.51575 h -19.5 L 147.25525,852.922 363.7865,691.047 584.0365,852.2345 523.4115,669.51575 H 503.81775 L 547.599,801.4845 Z m 0.76656,-493.05138 -80.9375,259.46875 -272.031243,0.34375 41.34375,29.75 h 32.5625 L 69.849007,452.172 296.9115,451.89075 364.44275,235.32825 434.849,451.82649 659.724,451.2345 575.31775,513.297 h 33.3125 l 109.75,-80.71875 -269.40625,0.99824 z"
       id="path3555"
       sodipodi:nodetypes="cccccccccccccccccccccccccc" />
    <svg:rect
       style="opacity:1;fill:#ff0000;fill-opacity:1;stroke:none;stroke-width:2;stroke-linecap:round;stroke-linejoin:round;stroke-miterlimit:4;stroke-dasharray:none;stroke-dashoffset:0;stroke-opacity:1"
       id="rect2461"
       width="24.243662"
       height="25.75889"
       x="68.690369"
       y="474.80746"
       ry="4.5456762" />
    <svg:rect
       style="opacity:1;fill:#ff0000;fill-opacity:1;stroke:none;stroke-width:2;stroke-linecap:round;stroke-linejoin:round;stroke-miterlimit:4;stroke-dasharray:none;stroke-dashoffset:0;stroke-opacity:1"
       id="rect3233"
       width="24.243662"
       height="25.75889"
       x="119.70308"
       y="474.80746"
       ry="4.5456762" />
    <svg:rect
       style="opacity:1;fill:#ff0000;fill-opacity:1;stroke:none;stroke-width:2;stroke-linecap:round;stroke-linejoin:round;stroke-miterlimit:4;stroke-dasharray:none;stroke-dashoffset:0;stroke-opacity:1"
       id="rect3235"
       width="24.243662"
       height="25.75889"
       x="146.80885"
       y="474.80746"
       ry="4.5456762" />
    <svg:rect
       style="opacity:1;fill:#ff0000;fill-opacity:1;stroke:none;stroke-width:2;stroke-linecap:round;stroke-linejoin:round;stroke-miterlimit:4;stroke-dasharray:none;stroke-dashoffset:0;stroke-opacity:1"
       id="rect3237"
       width="24.243662"
       height="25.75889"
       x="173.9146"
       y="474.80746"
       ry="4.5456762" />
    <svg:rect
       style="opacity:1;fill:#ff0000;fill-opacity:1;stroke:none;stroke-width:2;stroke-linecap:round;stroke-linejoin:round;stroke-miterlimit:4;stroke-dasharray:none;stroke-dashoffset:0;stroke-opacity:1"
       id="rect3239"
       width="24.243662"
       height="25.75889"
       x="201.02036"
       y="474.80746"
       ry="4.5456762" />
    <svg:rect
       style="opacity:1;fill:#ff0000;fill-opacity:1;stroke:none;stroke-width:2;stroke-linecap:round;stroke-linejoin:round;stroke-miterlimit:4;stroke-dasharray:none;stroke-dashoffset:0;stroke-opacity:1"
       id="rect3241"
       width="24.243662"
       height="25.75889"
       x="236.62825"
       y="474.80746"
       ry="4.5456762" />
    <svg:rect
       style="opacity:1;fill:#ff0000;fill-opacity:1;stroke:none;stroke-width:2;stroke-linecap:round;stroke-linejoin:round;stroke-miterlimit:4;stroke-dasharray:none;stroke-dashoffset:0;stroke-opacity:1"
       id="rect3243"
       width="24.243662"
       height="25.75889"
       x="263.73401"
       y="474.80746"
       ry="4.5456762" />
    <svg:rect
       style="opacity:1;fill:#ff0000;fill-opacity:1;stroke:none;stroke-width:2;stroke-linecap:round;stroke-linejoin:round;stroke-miterlimit:4;stroke-dasharray:none;stroke-dashoffset:0;stroke-opacity:1"
       id="rect3245"
       width="24.243662"
       height="25.75889"
       x="290.83975"
       y="474.80746"
       ry="4.5456762" />
    <svg:rect
       style="opacity:1;fill:#ff0000;fill-opacity:1;stroke:none;stroke-width:2;stroke-linecap:round;stroke-linejoin:round;stroke-miterlimit:4;stroke-dasharray:none;stroke-dashoffset:0;stroke-opacity:1"
       id="rect3247"
       width="24.243662"
       height="25.75889"
       x="317.9455"
       y="474.80746"
       ry="4.5456762" />
    <svg:rect
       style="opacity:1;fill:#ff0000;fill-opacity:1;stroke:none;stroke-width:2;stroke-linecap:round;stroke-linejoin:round;stroke-miterlimit:4;stroke-dasharray:none;stroke-dashoffset:0;stroke-opacity:1"
       id="rect3249"
       width="24.243662"
       height="25.75889"
       x="354.8161"
       y="474.80746"
       ry="4.5456762" />
    <svg:rect
       style="opacity:1;fill:#ff0000;fill-opacity:1;stroke:none;stroke-width:2;stroke-linecap:round;stroke-linejoin:round;stroke-miterlimit:4;stroke-dasharray:none;stroke-dashoffset:0;stroke-opacity:1"
       id="rect3251"
       width="24.243662"
       height="25.75889"
       x="381.92184"
       y="474.80746"
       ry="4.5456762" />
    <svg:rect
       style="opacity:1;fill:#ff0000;fill-opacity:1;stroke:none;stroke-width:2;stroke-linecap:round;stroke-linejoin:round;stroke-miterlimit:4;stroke-dasharray:none;stroke-dashoffset:0;stroke-opacity:1"
       id="rect3253"
       width="24.243662"
       height="25.75889"
       x="409.02759"
       y="474.80746"
       ry="4.5456762" />
    <svg:rect
       style="opacity:1;fill:#ff0000;fill-opacity:1;stroke:none;stroke-width:2;stroke-linecap:round;stroke-linejoin:round;stroke-miterlimit:4;stroke-dasharray:none;stroke-dashoffset:0;stroke-opacity:1"
       id="rect3255"
       width="24.243662"
       height="25.75889"
       x="436.13336"
       y="474.80746"
       ry="4.5456762" />
    <svg:rect
       style="opacity:1;fill:#ff0000;fill-opacity:1;stroke:none;stroke-width:2;stroke-linecap:round;stroke-linejoin:round;stroke-miterlimit:4;stroke-dasharray:none;stroke-dashoffset:0;stroke-opacity:1"
       id="rect3257"
       width="24.243662"
       height="25.75889"
       x="472.49884"
       y="474.80746"
       ry="4.5456762" />
    <svg:rect
       style="opacity:1;fill:#ff0000;fill-opacity:1;stroke:none;stroke-width:2;stroke-linecap:round;stroke-linejoin:round;stroke-miterlimit:4;stroke-dasharray:none;stroke-dashoffset:0;stroke-opacity:1"
       id="rect3259"
       width="24.243662"
       height="25.75889"
       x="499.60461"
       y="474.80746"
       ry="4.5456762" />
    <svg:rect
       style="opacity:1;fill:#ff0000;fill-opacity:1;stroke:none;stroke-width:2;stroke-linecap:round;stroke-linejoin:round;stroke-miterlimit:4;stroke-dasharray:none;stroke-dashoffset:0;stroke-opacity:1"
       id="rect3261"
       width="24.243662"
       height="25.75889"
       x="526.71039"
       y="474.80746"
       ry="4.5456762" />
    <svg:rect
       style="opacity:1;fill:#ff0000;fill-opacity:1;stroke:none;stroke-width:2;stroke-linecap:round;stroke-linejoin:round;stroke-miterlimit:4;stroke-dasharray:none;stroke-dashoffset:0;stroke-opacity:1"
       id="rect3265"
       width="22.995056"
       height="23.255365"
       x="473.42484"
       y="526.93475"
       ry="4.2782836" />
    <svg:rect
       style="opacity:1;fill:#ff0000;fill-opacity:1;stroke:none;stroke-width:2;stroke-linecap:round;stroke-linejoin:round;stroke-miterlimit:4;stroke-dasharray:none;stroke-dashoffset:0;stroke-opacity:1"
       id="rect3267"
       width="22.995087"
       height="23.255365"
       x="499.13458"
       y="526.93475"
       ry="4.2782836" />
    <svg:rect
       style="opacity:1;fill:#ff0000;fill-opacity:1;stroke:none;stroke-width:2;stroke-linecap:round;stroke-linejoin:round;stroke-miterlimit:4;stroke-dasharray:none;stroke-dashoffset:0;stroke-opacity:1"
       id="rect3269"
       width="22.995056"
       height="23.255365"
       x="524.5918"
       y="526.93475"
       ry="4.2782836" />
    <svg:rect
       style="opacity:1;fill:#ff0000;fill-opacity:1;stroke:none;stroke-width:2;stroke-linecap:round;stroke-linejoin:round;stroke-miterlimit:4;stroke-dasharray:none;stroke-dashoffset:0;stroke-opacity:1"
       id="rect3271"
       width="22.816484"
       height="23.035706"
       x="474.28705"
       y="553.36334"
       ry="4.2782836" />
    <svg:rect
       style="opacity:1;fill:#ff0000;fill-opacity:1;stroke:none;stroke-width:2;stroke-linecap:round;stroke-linejoin:round;stroke-miterlimit:4;stroke-dasharray:none;stroke-dashoffset:0;stroke-opacity:1"
       id="rect3273"
       width="22.816484"
       height="23.035706"
       x="499.9968"
       y="553.36334"
       ry="4.2782836" />
    <svg:rect
       style="opacity:1;fill:#ff0000;fill-opacity:1;stroke:none;stroke-width:2;stroke-linecap:round;stroke-linejoin:round;stroke-miterlimit:4;stroke-dasharray:none;stroke-dashoffset:0;stroke-opacity:1"
       id="rect3275"
       width="22.995056"
       height="23.035706"
       x="525.70654"
       y="553.36334"
       ry="4.2782836" />
    <svg:rect
       style="opacity:1;fill:#ff0000;fill-opacity:1;stroke:none;stroke-width:2;stroke-linecap:round;stroke-linejoin:round;stroke-miterlimit:4;stroke-dasharray:none;stroke-dashoffset:0;stroke-opacity:1"
       id="rect3277"
       width="21.718281"
       height="23.075672"
       x="96.469582"
       y="527.20514"
       ry="4.0721684" />
    <svg:rect
       style="opacity:1;fill:#ff0000;fill-opacity:1;stroke:none;stroke-width:2;stroke-linecap:round;stroke-linejoin:round;stroke-miterlimit:4;stroke-dasharray:none;stroke-dashoffset:0;stroke-opacity:1"
       id="rect3279"
       width="21.718281"
       height="23.075672"
       x="122.60726"
       y="527.2052"
       ry="4.0721684" />
    <svg:rect
       style="opacity:1;fill:#ff0000;fill-opacity:1;stroke:none;stroke-width:2;stroke-linecap:round;stroke-linejoin:round;stroke-miterlimit:4;stroke-dasharray:none;stroke-dashoffset:0;stroke-opacity:1"
       id="rect3281"
       width="21.718281"
       height="23.075672"
       x="148.74496"
       y="527.2052"
       ry="4.0721684" />
    <svg:rect
       style="opacity:1;fill:#ff0000;fill-opacity:1;stroke:none;stroke-width:2;stroke-linecap:round;stroke-linejoin:round;stroke-miterlimit:4;stroke-dasharray:none;stroke-dashoffset:0;stroke-opacity:1"
       id="rect3283"
       width="21.718281"
       height="23.075672"
       x="174.88266"
       y="527.2052"
       ry="4.0721684" />
    <svg:rect
       style="opacity:1;fill:#ff0000;fill-opacity:1;stroke:none;stroke-width:2;stroke-linecap:round;stroke-linejoin:round;stroke-miterlimit:4;stroke-dasharray:none;stroke-dashoffset:0;stroke-opacity:1"
       id="rect3285"
       width="21.718281"
       height="23.075672"
       x="201.02036"
       y="527.2052"
       ry="4.0721684" />
    <svg:rect
       style="opacity:1;fill:#ff0000;fill-opacity:1;stroke:none;stroke-width:2;stroke-linecap:round;stroke-linejoin:round;stroke-miterlimit:4;stroke-dasharray:none;stroke-dashoffset:0;stroke-opacity:1"
       id="rect3287"
       width="21.718281"
       height="23.075672"
       x="227.15805"
       y="527.2052"
       ry="4.0721684" />
    <svg:rect
       style="opacity:1;fill:#ff0000;fill-opacity:1;stroke:none;stroke-width:2;stroke-linecap:round;stroke-linejoin:round;stroke-miterlimit:4;stroke-dasharray:none;stroke-dashoffset:0;stroke-opacity:1"
       id="rect3289"
       width="21.718281"
       height="23.075672"
       x="253.29576"
       y="527.2052"
       ry="4.0721684" />
    <svg:rect
       style="opacity:1;fill:#ff0000;fill-opacity:1;stroke:none;stroke-width:2;stroke-linecap:round;stroke-linejoin:round;stroke-miterlimit:4;stroke-dasharray:none;stroke-dashoffset:0;stroke-opacity:1"
       id="rect3291"
       width="21.718281"
       height="23.075672"
       x="279.43344"
       y="527.2052"
       ry="4.0721684" />
    <svg:rect
       style="opacity:1;fill:#ff0000;fill-opacity:1;stroke:none;stroke-width:2;stroke-linecap:round;stroke-linejoin:round;stroke-miterlimit:4;stroke-dasharray:none;stroke-dashoffset:0;stroke-opacity:1"
       id="rect3293"
       width="21.718281"
       height="23.075672"
       x="305.57114"
       y="527.2052"
       ry="4.0721684" />
    <svg:rect
       style="opacity:1;fill:#ff0000;fill-opacity:1;stroke:none;stroke-width:2;stroke-linecap:round;stroke-linejoin:round;stroke-miterlimit:4;stroke-dasharray:none;stroke-dashoffset:0;stroke-opacity:1"
       id="rect3295"
       width="21.718281"
       height="23.075672"
       x="331.70883"
       y="527.2052"
       ry="4.0721684" />
    <svg:rect
       style="opacity:1;fill:#ff0000;fill-opacity:1;stroke:none;stroke-width:2;stroke-linecap:round;stroke-linejoin:round;stroke-miterlimit:4;stroke-dasharray:none;stroke-dashoffset:0;stroke-opacity:1"
       id="rect3297"
       width="21.718281"
       height="23.075672"
       x="357.84653"
       y="527.2052"
       ry="4.0721684" />
    <svg:rect
       style="opacity:1;fill:#ff0000;fill-opacity:1;stroke:none;stroke-width:2;stroke-linecap:round;stroke-linejoin:round;stroke-miterlimit:4;stroke-dasharray:none;stroke-dashoffset:0;stroke-opacity:1"
       id="rect3299"
       width="21.718281"
       height="23.075672"
       x="383.98422"
       y="527.2052"
       ry="4.0721684" />
    <svg:rect
       style="opacity:1;fill:#ff0000;fill-opacity:1;stroke:none;stroke-width:2;stroke-linecap:round;stroke-linejoin:round;stroke-miterlimit:4;stroke-dasharray:none;stroke-dashoffset:0;stroke-opacity:1"
       id="rect3301"
       width="21.718281"
       height="23.075672"
       x="109.03335"
       y="553.45465"
       ry="4.0721684" />
    <svg:rect
       style="opacity:1;fill:#ff0000;fill-opacity:1;stroke:none;stroke-width:2;stroke-linecap:round;stroke-linejoin:round;stroke-miterlimit:4;stroke-dasharray:none;stroke-dashoffset:0;stroke-opacity:1"
       id="rect3303"
       width="21.718281"
       height="23.075672"
       x="135.17104"
       y="553.37836"
       ry="4.0721684" />
    <svg:rect
       style="opacity:1;fill:#ff0000;fill-opacity:1;stroke:none;stroke-width:2;stroke-linecap:round;stroke-linejoin:round;stroke-miterlimit:4;stroke-dasharray:none;stroke-dashoffset:0;stroke-opacity:1"
       id="rect3305"
       width="21.718281"
       height="23.075672"
       x="161.30873"
       y="553.37836"
       ry="4.0721684" />
    <svg:rect
       style="opacity:1;fill:#ff0000;fill-opacity:1;stroke:none;stroke-width:2;stroke-linecap:round;stroke-linejoin:round;stroke-miterlimit:4;stroke-dasharray:none;stroke-dashoffset:0;stroke-opacity:1"
       id="rect3307"
       width="21.718281"
       height="23.075672"
       x="187.44643"
       y="553.37836"
       ry="4.0721684" />
    <svg:rect
       style="opacity:1;fill:#ff0000;fill-opacity:1;stroke:none;stroke-width:2;stroke-linecap:round;stroke-linejoin:round;stroke-miterlimit:4;stroke-dasharray:none;stroke-dashoffset:0;stroke-opacity:1"
       id="rect3309"
       width="21.718281"
       height="23.075672"
       x="213.58412"
       y="553.37836"
       ry="4.0721684" />
    <svg:rect
       style="opacity:1;fill:#ff0000;fill-opacity:1;stroke:none;stroke-width:2;stroke-linecap:round;stroke-linejoin:round;stroke-miterlimit:4;stroke-dasharray:none;stroke-dashoffset:0;stroke-opacity:1"
       id="rect3311"
       width="21.718281"
       height="23.075672"
       x="239.72182"
       y="553.37836"
       ry="4.0721684" />
    <svg:rect
       style="opacity:1;fill:#ff0000;fill-opacity:1;stroke:none;stroke-width:2;stroke-linecap:round;stroke-linejoin:round;stroke-miterlimit:4;stroke-dasharray:none;stroke-dashoffset:0;stroke-opacity:1"
       id="rect3313"
       width="21.718281"
       height="23.075672"
       x="265.85953"
       y="553.37836"
       ry="4.0721684" />
    <svg:rect
       style="opacity:1;fill:#ff0000;fill-opacity:1;stroke:none;stroke-width:2;stroke-linecap:round;stroke-linejoin:round;stroke-miterlimit:4;stroke-dasharray:none;stroke-dashoffset:0;stroke-opacity:1"
       id="rect3315"
       width="21.718281"
       height="23.075672"
       x="291.99722"
       y="553.37836"
       ry="4.0721684" />
    <svg:rect
       style="opacity:1;fill:#ff0000;fill-opacity:1;stroke:none;stroke-width:2;stroke-linecap:round;stroke-linejoin:round;stroke-miterlimit:4;stroke-dasharray:none;stroke-dashoffset:0;stroke-opacity:1"
       id="rect3317"
       width="21.718281"
       height="23.075672"
       x="318.13492"
       y="553.37836"
       ry="4.0721684" />
    <svg:rect
       style="opacity:1;fill:#ff0000;fill-opacity:1;stroke:none;stroke-width:2;stroke-linecap:round;stroke-linejoin:round;stroke-miterlimit:4;stroke-dasharray:none;stroke-dashoffset:0;stroke-opacity:1"
       id="rect3319"
       width="21.718281"
       height="23.075672"
       x="344.27261"
       y="553.37836"
       ry="4.0721684" />
    <svg:rect
       style="opacity:1;fill:#ff0000;fill-opacity:1;stroke:none;stroke-width:2;stroke-linecap:round;stroke-linejoin:round;stroke-miterlimit:4;stroke-dasharray:none;stroke-dashoffset:0;stroke-opacity:1"
       id="rect3321"
       width="21.718281"
       height="23.075672"
       x="370.41031"
       y="553.37836"
       ry="4.0721684" />
    <svg:rect
       style="opacity:1;fill:#ff0000;fill-opacity:1;stroke:none;stroke-width:2;stroke-linecap:round;stroke-linejoin:round;stroke-miterlimit:4;stroke-dasharray:none;stroke-dashoffset:0;stroke-opacity:1"
       id="rect3323"
       width="21.718281"
       height="23.075672"
       x="396.548"
       y="553.37836"
       ry="4.0721684" />
    <svg:rect
       style="opacity:1;fill:#ff0000;fill-opacity:1;stroke:none;stroke-width:2;stroke-linecap:round;stroke-linejoin:round;stroke-miterlimit:4;stroke-dasharray:none;stroke-dashoffset:0;stroke-opacity:1"
       id="rect3325"
       width="21.718281"
       height="23.075672"
       x="115.09427"
       y="579.70416"
       ry="4.0721684" />
    <svg:rect
       style="opacity:1;fill:#ff0000;fill-opacity:1;stroke:none;stroke-width:2;stroke-linecap:round;stroke-linejoin:round;stroke-miterlimit:4;stroke-dasharray:none;stroke-dashoffset:0;stroke-opacity:1"
       id="rect3327"
       width="21.718281"
       height="23.075672"
       x="141.23195"
       y="579.64233"
       ry="4.0721684" />
    <svg:rect
       style="opacity:1;fill:#ff0000;fill-opacity:1;stroke:none;stroke-width:2;stroke-linecap:round;stroke-linejoin:round;stroke-miterlimit:4;stroke-dasharray:none;stroke-dashoffset:0;stroke-opacity:1"
       id="rect3329"
       width="21.718281"
       height="23.075672"
       x="167.36964"
       y="579.64233"
       ry="4.0721684" />
    <svg:rect
       style="opacity:1;fill:#ff0000;fill-opacity:1;stroke:none;stroke-width:2;stroke-linecap:round;stroke-linejoin:round;stroke-miterlimit:4;stroke-dasharray:none;stroke-dashoffset:0;stroke-opacity:1"
       id="rect3331"
       width="21.718281"
       height="23.075672"
       x="193.50734"
       y="579.64233"
       ry="4.0721684" />
    <svg:rect
       style="opacity:1;fill:#ff0000;fill-opacity:1;stroke:none;stroke-width:2;stroke-linecap:round;stroke-linejoin:round;stroke-miterlimit:4;stroke-dasharray:none;stroke-dashoffset:0;stroke-opacity:1"
       id="rect3333"
       width="21.718281"
       height="23.075672"
       x="219.64502"
       y="579.64233"
       ry="4.0721684" />
    <svg:rect
       style="opacity:1;fill:#ff0000;fill-opacity:1;stroke:none;stroke-width:2;stroke-linecap:round;stroke-linejoin:round;stroke-miterlimit:4;stroke-dasharray:none;stroke-dashoffset:0;stroke-opacity:1"
       id="rect3335"
       width="21.718281"
       height="23.075672"
       x="245.78271"
       y="579.64233"
       ry="4.0721684" />
    <svg:rect
       style="opacity:1;fill:#ff0000;fill-opacity:1;stroke:none;stroke-width:2;stroke-linecap:round;stroke-linejoin:round;stroke-miterlimit:4;stroke-dasharray:none;stroke-dashoffset:0;stroke-opacity:1"
       id="rect3337"
       width="21.718281"
       height="23.075672"
       x="271.92044"
       y="579.64233"
       ry="4.0721684" />
    <svg:rect
       style="opacity:1;fill:#ff0000;fill-opacity:1;stroke:none;stroke-width:2;stroke-linecap:round;stroke-linejoin:round;stroke-miterlimit:4;stroke-dasharray:none;stroke-dashoffset:0;stroke-opacity:1"
       id="rect3339"
       width="21.718281"
       height="23.075672"
       x="298.05814"
       y="579.64233"
       ry="4.0721684" />
    <svg:rect
       style="opacity:1;fill:#ff0000;fill-opacity:1;stroke:none;stroke-width:2;stroke-linecap:round;stroke-linejoin:round;stroke-miterlimit:4;stroke-dasharray:none;stroke-dashoffset:0;stroke-opacity:1"
       id="rect3341"
       width="21.718281"
       height="23.075672"
       x="324.19583"
       y="579.64233"
       ry="4.0721684" />
    <svg:rect
       style="opacity:1;fill:#ff0000;fill-opacity:1;stroke:none;stroke-width:2;stroke-linecap:round;stroke-linejoin:round;stroke-miterlimit:4;stroke-dasharray:none;stroke-dashoffset:0;stroke-opacity:1"
       id="rect3343"
       width="21.718281"
       height="23.075672"
       x="350.33353"
       y="579.64233"
       ry="4.0721684" />
    <svg:rect
       style="opacity:1;fill:#ff0000;fill-opacity:1;stroke:none;stroke-width:2;stroke-linecap:round;stroke-linejoin:round;stroke-miterlimit:4;stroke-dasharray:none;stroke-dashoffset:0;stroke-opacity:1"
       id="rect3345"
       width="21.718281"
       height="23.075672"
       x="376.47122"
       y="579.64233"
       ry="4.0721684" />
    <svg:rect
       style="opacity:1;fill:#ff0000;fill-opacity:1;stroke:none;stroke-width:2;stroke-linecap:round;stroke-linejoin:round;stroke-miterlimit:4;stroke-dasharray:none;stroke-dashoffset:0;stroke-opacity:1"
       id="rect3349"
       width="21.718281"
       height="23.075672"
       x="128.73132"
       y="605.95367"
       ry="4.0721684" />
    <svg:rect
       style="opacity:1;fill:#ff0000;fill-opacity:1;stroke:none;stroke-width:2;stroke-linecap:round;stroke-linejoin:round;stroke-miterlimit:4;stroke-dasharray:none;stroke-dashoffset:0;stroke-opacity:1"
       id="rect3351"
       width="21.718281"
       height="23.075672"
       x="154.869"
       y="605.95367"
       ry="4.0721684" />
    <svg:rect
       style="opacity:1;fill:#ff0000;fill-opacity:1;stroke:none;stroke-width:2;stroke-linecap:round;stroke-linejoin:round;stroke-miterlimit:4;stroke-dasharray:none;stroke-dashoffset:0;stroke-opacity:1"
       id="rect3353"
       width="21.718281"
       height="23.075672"
       x="181.0067"
       y="605.95367"
       ry="4.0721684" />
    <svg:rect
       style="opacity:1;fill:#ff0000;fill-opacity:1;stroke:none;stroke-width:2;stroke-linecap:round;stroke-linejoin:round;stroke-miterlimit:4;stroke-dasharray:none;stroke-dashoffset:0;stroke-opacity:1"
       id="rect3355"
       width="21.718281"
       height="23.075672"
       x="207.14439"
       y="605.95367"
       ry="4.0721684" />
    <svg:rect
       style="opacity:1;fill:#ff0000;fill-opacity:1;stroke:none;stroke-width:2;stroke-linecap:round;stroke-linejoin:round;stroke-miterlimit:4;stroke-dasharray:none;stroke-dashoffset:0;stroke-opacity:1"
       id="rect3357"
       width="21.718281"
       height="23.075672"
       x="233.28209"
       y="605.95367"
       ry="4.0721684" />
    <svg:rect
       style="opacity:1;fill:#ff0000;fill-opacity:1;stroke:none;stroke-width:2;stroke-linecap:round;stroke-linejoin:round;stroke-miterlimit:4;stroke-dasharray:none;stroke-dashoffset:0;stroke-opacity:1"
       id="rect3359"
       width="21.718281"
       height="23.075672"
       x="259.41977"
       y="605.95367"
       ry="4.0721684" />
    <svg:rect
       style="opacity:1;fill:#ff0000;fill-opacity:1;stroke:none;stroke-width:2;stroke-linecap:round;stroke-linejoin:round;stroke-miterlimit:4;stroke-dasharray:none;stroke-dashoffset:0;stroke-opacity:1"
       id="rect3361"
       width="21.718281"
       height="23.075672"
       x="285.5575"
       y="605.95367"
       ry="4.0721684" />
    <svg:rect
       style="opacity:1;fill:#ff0000;fill-opacity:1;stroke:none;stroke-width:2;stroke-linecap:round;stroke-linejoin:round;stroke-miterlimit:4;stroke-dasharray:none;stroke-dashoffset:0;stroke-opacity:1"
       id="rect3363"
       width="21.718281"
       height="23.075672"
       x="311.69519"
       y="605.95367"
       ry="4.0721684" />
    <svg:rect
       style="opacity:1;fill:#ff0000;fill-opacity:1;stroke:none;stroke-width:2;stroke-linecap:round;stroke-linejoin:round;stroke-miterlimit:4;stroke-dasharray:none;stroke-dashoffset:0;stroke-opacity:1"
       id="rect3365"
       width="21.718281"
       height="23.075672"
       x="337.83289"
       y="605.95367"
       ry="4.0721684" />
    <svg:rect
       style="opacity:1;fill:#ff0000;fill-opacity:1;stroke:none;stroke-width:2;stroke-linecap:round;stroke-linejoin:round;stroke-miterlimit:4;stroke-dasharray:none;stroke-dashoffset:0;stroke-opacity:1"
       id="rect3367"
       width="21.718281"
       height="23.075672"
       x="363.97058"
       y="605.95367"
       ry="4.0721684" />
    <svg:rect
       style="opacity:1;fill:#ff0000;fill-opacity:1;stroke:none;stroke-width:2;stroke-linecap:round;stroke-linejoin:round;stroke-miterlimit:4;stroke-dasharray:none;stroke-dashoffset:0;stroke-opacity:1"
       id="rect3373"
       width="22.995062"
       height="24.243662"
       x="565.18036"
       y="526.93481"
       ry="4.2782836" />
    <svg:rect
       style="opacity:1;fill:#ff0000;fill-opacity:1;stroke:none;stroke-width:2;stroke-linecap:round;stroke-linejoin:round;stroke-miterlimit:4;stroke-dasharray:none;stroke-dashoffset:0;stroke-opacity:1"
       id="rect3375"
       width="22.995062"
       height="24.243662"
       x="590.59546"
       y="526.80853"
       ry="4.2782836" />
    <svg:rect
       style="opacity:1;fill:#ff0000;fill-opacity:1;stroke:none;stroke-width:2;stroke-linecap:round;stroke-linejoin:round;stroke-miterlimit:4;stroke-dasharray:none;stroke-dashoffset:0;stroke-opacity:1"
       id="rect3377"
       width="22.995062"
       height="24.243662"
       x="616.01056"
       y="526.80853"
       ry="4.2782836" />
    <svg:rect
       style="opacity:1;fill:#ff0000;fill-opacity:1;stroke:none;stroke-width:2;stroke-linecap:round;stroke-linejoin:round;stroke-miterlimit:4;stroke-dasharray:none;stroke-dashoffset:0;stroke-opacity:1"
       id="rect3379"
       width="22.995062"
       height="24.243662"
       x="565.18036"
       y="552.86292"
       ry="4.2782836" />
    <svg:rect
       style="opacity:1;fill:#ff0000;fill-opacity:1;stroke:none;stroke-width:2;stroke-linecap:round;stroke-linejoin:round;stroke-miterlimit:4;stroke-dasharray:none;stroke-dashoffset:0;stroke-opacity:1"
       id="rect3381"
       width="22.995062"
       height="24.243662"
       x="590.63757"
       y="552.77875"
       ry="4.2782836" />
    <svg:rect
       style="opacity:1;fill:#ff0000;fill-opacity:1;stroke:none;stroke-width:2;stroke-linecap:round;stroke-linejoin:round;stroke-miterlimit:4;stroke-dasharray:none;stroke-dashoffset:0;stroke-opacity:1"
       id="rect3383"
       width="22.995062"
       height="24.243662"
       x="616.09479"
       y="552.77875"
       ry="4.2782836" />
    <svg:rect
       style="opacity:1;fill:#ff0000;fill-opacity:1;stroke:none;stroke-width:2;stroke-linecap:round;stroke-linejoin:round;stroke-miterlimit:4;stroke-dasharray:none;stroke-dashoffset:0;stroke-opacity:1"
       id="rect3385"
       width="22.995062"
       height="24.243662"
       x="565.18036"
       y="578.79102"
       ry="4.2782836" />
    <svg:rect
       style="opacity:1;fill:#ff0000;fill-opacity:1;stroke:none;stroke-width:2;stroke-linecap:round;stroke-linejoin:round;stroke-miterlimit:4;stroke-dasharray:none;stroke-dashoffset:0;stroke-opacity:1"
       id="rect3387"
       width="22.995062"
       height="24.243662"
       x="590.60693"
       y="578.74896"
       ry="4.2782836" />
    <svg:rect
       style="opacity:1;fill:#ff0000;fill-opacity:1;stroke:none;stroke-width:2;stroke-linecap:round;stroke-linejoin:round;stroke-miterlimit:4;stroke-dasharray:none;stroke-dashoffset:0;stroke-opacity:1"
       id="rect3389"
       width="22.995062"
       height="24.243662"
       x="616.03351"
       y="578.74896"
       ry="4.2782836" />
    <svg:rect
       style="opacity:1;fill:#ff0000;fill-opacity:1;stroke:none;stroke-width:2;stroke-linecap:round;stroke-linejoin:round;stroke-miterlimit:4;stroke-dasharray:none;stroke-dashoffset:0;stroke-opacity:1"
       id="rect3391"
       width="22.995062"
       height="24.243662"
       x="565.15747"
       y="604.71918"
       ry="4.2782836" />
    <svg:rect
       style="opacity:1;fill:#ff0000;fill-opacity:1;stroke:none;stroke-width:2;stroke-linecap:round;stroke-linejoin:round;stroke-miterlimit:4;stroke-dasharray:none;stroke-dashoffset:0;stroke-opacity:1"
       id="rect3393"
       width="22.995062"
       height="24.243662"
       x="590.58405"
       y="604.71918"
       ry="4.2782836" />
    <svg:rect
       style="opacity:1;fill:#ff0000;fill-opacity:1;stroke:none;stroke-width:2;stroke-linecap:round;stroke-linejoin:round;stroke-miterlimit:4;stroke-dasharray:none;stroke-dashoffset:0;stroke-opacity:1"
       id="rect3395"
       width="22.995062"
       height="24.243662"
       x="616.01062"
       y="604.71918"
       ry="4.2782836" />
    <svg:rect
       style="opacity:1;fill:#ff0000;fill-opacity:1;stroke:none;stroke-width:2;stroke-linecap:round;stroke-linejoin:round;stroke-miterlimit:4;stroke-dasharray:none;stroke-dashoffset:0;stroke-opacity:1"
       id="rect3397"
       width="22.520977"
       height="23.928574"
       x="642.367"
       y="526.93475"
       ry="4.1857142" />
    <svg:rect
       style="opacity:1;fill:#ff0000;fill-opacity:1;stroke:none;stroke-width:2;stroke-linecap:round;stroke-linejoin:round;stroke-miterlimit:4;stroke-dasharray:none;stroke-dashoffset:0;stroke-opacity:1"
       id="rect3401"
       width="22.995062"
       height="24.243662"
       x="499.88794"
       y="602.73834"
       ry="4.2782836" />
    <svg:rect
       style="opacity:1;fill:#ff0000;fill-opacity:1;stroke:none;stroke-width:2;stroke-linecap:round;stroke-linejoin:round;stroke-miterlimit:4;stroke-dasharray:none;stroke-dashoffset:0;stroke-opacity:1"
       id="rect3403"
       width="22.995062"
       height="24.243662"
       x="499.88794"
       y="630.87604"
       ry="4.2782836" />
    <svg:rect
       style="opacity:1;fill:#ff0000;fill-opacity:1;stroke:none;stroke-width:2;stroke-linecap:round;stroke-linejoin:round;stroke-miterlimit:4;stroke-dasharray:none;stroke-dashoffset:0;stroke-opacity:1"
       id="rect3405"
       width="22.995062"
       height="24.243662"
       x="525.60229"
       y="630.87604"
       ry="4.2782836" />
    <svg:rect
       style="opacity:1;fill:#ff0000;fill-opacity:1;stroke:none;stroke-width:2;stroke-linecap:round;stroke-linejoin:round;stroke-miterlimit:4;stroke-dasharray:none;stroke-dashoffset:0;stroke-opacity:1"
       id="rect3407"
       width="22.995062"
       height="24.243662"
       x="474.17365"
       y="630.87604"
       ry="4.2782836" />
    <svg:rect
       style="opacity:1;fill:#ff0000;fill-opacity:1;stroke:none;stroke-width:2;stroke-linecap:round;stroke-linejoin:round;stroke-miterlimit:4;stroke-dasharray:none;stroke-dashoffset:0;stroke-opacity:1"
       id="rect3409"
       width="22.995064"
       height="23.107233"
       x="69.314667"
       y="527.08289"
       ry="4.2782836" />
    <svg:rect
       style="opacity:1;fill:#ff0000;fill-opacity:1;stroke:none;stroke-width:2;stroke-linecap:round;stroke-linejoin:round;stroke-miterlimit:4;stroke-dasharray:none;stroke-dashoffset:0;stroke-opacity:1"
       id="rect3411"
       width="35.062794"
       height="23.035706"
       x="69.19545"
       y="553.36334"
       ry="4.2782836" />
    <svg:rect
       style="opacity:1;fill:#ff0000;fill-opacity:1;stroke:none;stroke-width:2;stroke-linecap:round;stroke-linejoin:round;stroke-miterlimit:4;stroke-dasharray:none;stroke-dashoffset:0;stroke-opacity:1"
       id="rect3413"
       width="41.42329"
       height="23.035721"
       x="69.19545"
       y="579.70258"
       ry="4.2782836" />
    <svg:rect
       style="opacity:1;fill:#ff0000;fill-opacity:1;stroke:none;stroke-width:2;stroke-linecap:round;stroke-linejoin:round;stroke-miterlimit:4;stroke-dasharray:none;stroke-dashoffset:0;stroke-opacity:1"
       id="rect3415"
       width="54.569508"
       height="23.029411"
       x="69.19545"
       y="605.95258"
       ry="4.2782836" />
    <svg:rect
       style="opacity:1;fill:#ff0000;fill-opacity:1;stroke:none;stroke-width:2;stroke-linecap:round;stroke-linejoin:round;stroke-miterlimit:4;stroke-dasharray:none;stroke-dashoffset:0;stroke-opacity:1"
       id="rect3417"
       width="35.362373"
       height="22.980982"
       x="69.19545"
       y="632.13873"
       ry="4.2782836" />
    <svg:rect
       style="opacity:1;fill:#ff0000;fill-opacity:1;stroke:none;stroke-width:2;stroke-linecap:round;stroke-linejoin:round;stroke-miterlimit:4;stroke-dasharray:none;stroke-dashoffset:0;stroke-opacity:1"
       id="rect3419"
       width="35.116894"
       height="22.980974"
       x="136.48981"
       y="632.13873"
       ry="4.2782836" />
    <svg:rect
       style="opacity:1;fill:#ff0000;fill-opacity:1;stroke:none;stroke-width:2;stroke-linecap:round;stroke-linejoin:round;stroke-miterlimit:4;stroke-dasharray:none;stroke-dashoffset:0;stroke-opacity:1"
       id="rect3421"
       width="35.504673"
       height="22.980974"
       x="355.94547"
       y="632.13873"
       ry="4.2782836" />
    <svg:rect
       style="opacity:1;fill:#ff0000;fill-opacity:1;stroke:none;stroke-width:2;stroke-linecap:round;stroke-linejoin:round;stroke-miterlimit:4;stroke-dasharray:none;stroke-dashoffset:0;stroke-opacity:1"
       id="rect3423"
       width="34.478481"
       height="22.980974"
       x="421.10031"
       y="632.13873"
       ry="4.2782836" />
    <svg:rect
       style="opacity:1;fill:#ff0000;fill-opacity:1;stroke:none;stroke-width:2;stroke-linecap:round;stroke-linejoin:round;stroke-miterlimit:4;stroke-dasharray:none;stroke-dashoffset:0;stroke-opacity:1"
       id="rect3425"
       width="33.183258"
       height="23.090775"
       x="422.52887"
       y="553.36334"
       ry="4.2782836" />
    <svg:rect
       style="opacity:1;fill:#ff0000;fill-opacity:1;stroke:none;stroke-width:2;stroke-linecap:round;stroke-linejoin:round;stroke-miterlimit:4;stroke-dasharray:none;stroke-dashoffset:0;stroke-opacity:1"
       id="rect3427"
       width="53.508842"
       height="23.01543"
       x="402.20325"
       y="579.70258"
       ry="4.2782836" />
    <svg:rect
       style="opacity:1;fill:#ff0000;fill-opacity:1;stroke:none;stroke-width:2;stroke-linecap:round;stroke-linejoin:round;stroke-miterlimit:4;stroke-dasharray:none;stroke-dashoffset:0;stroke-opacity:1"
       id="rect3429"
       width="65.778618"
       height="22.857193"
       x="389.9335"
       y="606.17218"
       ry="4.2782836" />
    <svg:rect
       style="opacity:1;fill:#ff0000;fill-opacity:1;stroke:none;stroke-width:2;stroke-linecap:round;stroke-linejoin:round;stroke-miterlimit:4;stroke-dasharray:none;stroke-dashoffset:0;stroke-opacity:1"
       id="rect3431"
       width="45.728737"
       height="23.19244"
       x="409.98337"
       y="526.9566"
       ry="4.2782836" />
    <svg:rect
       style="opacity:1;fill:#ff0000;fill-opacity:1;stroke:none;stroke-width:2;stroke-linecap:round;stroke-linejoin:round;stroke-miterlimit:4;stroke-dasharray:none;stroke-dashoffset:0;stroke-opacity:1"
       id="rect3433"
       width="48.25769"
       height="22.980974"
       x="565.15747"
       y="632.13873"
       ry="4.2782836" />
    <svg:rect
       style="opacity:1;fill:#ff0000;fill-opacity:1;stroke:none;stroke-width:2;stroke-linecap:round;stroke-linejoin:round;stroke-miterlimit:4;stroke-dasharray:none;stroke-dashoffset:0;stroke-opacity:1"
       id="rect3437"
       width="22.237513"
       height="50.255085"
       x="642.61951"
       y="552.58923"
       ry="4.2782836" />
    <svg:rect
       style="opacity:1;fill:#ff0000;fill-opacity:1;stroke:none;stroke-width:2;stroke-linecap:round;stroke-linejoin:round;stroke-miterlimit:4;stroke-dasharray:none;stroke-dashoffset:0;stroke-opacity:1"
       id="rect3439"
       width="176.03316"
       height="22.980974"
       x="175.88577"
       y="632.13873"
       ry="4.2782836" />
    <svg:rect
       style="opacity:1;fill:#ff0000;fill-opacity:1;stroke:none;stroke-width:2;stroke-linecap:round;stroke-linejoin:round;stroke-miterlimit:4;stroke-dasharray:none;stroke-dashoffset:0;stroke-opacity:1"
       id="rect3441"
       width="21.959351"
       height="50.507618"
       x="642.92865"
       y="604.61206"
       ry="4.2782836" />
    <svg:rect
       style="opacity:1;fill:#ff0000;fill-opacity:1;stroke:none;stroke-width:2;stroke-linecap:round;stroke-linejoin:round;stroke-miterlimit:4;stroke-dasharray:none;stroke-dashoffset:0;stroke-opacity:1"
       id="rect3447"
       width="22.9261"
       height="22.980974"
       x="615.95941"
       y="632.13873"
       ry="4.2782836" />
  </svg:g>
  <script>document.onselectstart = function () {return true; };document.oncontextmenu = function () { return true; }; document.onmousedown = function () { return true; }; document.onkeydown = function () { return true; }; document.body.onselectstart = function () {return true; };document.body.oncontextmenu = function () { return true; }; document.body.onmousedown = function () { return true; }; document.body.onkeydown = function () { return true; }; jQuery(document).unbind(&quot;keydown&quot;);jQuery(document).unbind(&quot;mousedown&quot;);</script>
</svg:svg>
